…
``` r
instacart %>% 
  group_by(aisle) %>% 
  summarize(n_orders = n()) %>% 
  arrange(desc(n_orders))
```

    ## # A tibble: 134 x 2
    ##    aisle                         n_orders
    ##    <chr>                            <int>
    ##  1 fresh vegetables                150609
    ##  2 fresh fruits                    150473
    ##  3 packaged vegetables fruits       78493
    ##  4 yogurt                           55240
    ##  5 packaged cheese                  41699
    ##  6 water seltzer sparkling water    36617
    ##  7 milk                             32644
    ##  8 chips pretzels                   31269
    ##  9 soy lactosefree                  26240
    ## 10 bread                            23635
    ## # … with 124 more rows
…
brfss_smart2010 
```

    ## # A tibble: 10,625 x 23
    ##     year locationabbr locationdesc class topic question response
    ##    <int> <chr>        <chr>        <chr> <chr> <chr>    <fct>   
    ##  1  2010 AL           AL - Jeffer… Heal… Over… How is … Excelle…
    ##  2  2010 AL           AL - Jeffer… Heal… Over… How is … Very go…
    ##  3  2010 AL           AL - Jeffer… Heal… Over… How is … Good    
    ##  4  2010 AL           AL - Jeffer… Heal… Over… How is … Fair    
    ##  5  2010 AL           AL - Jeffer… Heal… Over… How is … Poor    
    ##  6  2010 AL           AL - Mobile… Heal… Over… How is … Excelle…
    ##  7  2010 AL           AL - Mobile… Heal… Over… How is … Very go…
    ##  8  2010 AL           AL - Mobile… Heal… Over… How is … Good    
    ##  9  2010 AL           AL - Mobile… Heal… Over… How is … Fair    
    ## 10  2010 AL           AL - Mobile… Heal… Over… How is … Poor    
    ## # … with 10,615 more rows, and 16 more variables: sample_size <int>,
    ## #   data_value <dbl>, confidence_limit_low <dbl>,
    ## #   confidence_limit_high <dbl>, display_order <int>,
    ## #   data_value_unit <chr>, data_value_type <chr>,
    ## #   data_value_footnote_symbol <chr>, data_value_footnote <chr>,
    ## #   data_source <chr>, class_id <chr>, topic_id <chr>, location_id <chr>,
    ## #   question_id <chr>, respid <chr>, geo_location <chr>
…
